{
  "google": "fda7bc51962dc0e05e541f82ce5ef1c0aeb897edcdba6346b9fd8673a43251d0",
  "null": "65798970e058807d7a1cde36c4f4b2e52b59a7a0ce59554f833f9f724f279fae",
  "template": "a7a55a3db915e673d43d09ca92b609481f90cdd19520cbd47633002e58fc2d02"
}